{
Color: {
	black: {a: 1, b: 0, g: 0, r: 0 },
	white: {a: 1, b: 1, g: 1, r: 1 },
	gray: {a: 1, b: 0.32, g: 0.32, r: 0.32 },
    lightgray: {a: 1, b: 0.65, g: 0.65, r: 0.65 }
	orange: {hex: "00FFFF"},
	accent: {hex: "00FFFF"}
},
TintedDrawable: {
	dialogDim: {name: white, color: {r: 0, g: 0, b: 0, a: 0.9} },
	invis: {name: white, color: {r: 0, g: 0, b: 0, a: 0} }
	loadDim: {name: white, color: {r: 0, g: 0, b: 0, a: 0.8} },
	chatfield: {name: white, color: {r: 0, g: 0, b: 0, a: 0.2}},
	dark: {name: white, color: {hex: "#000000ff"}},
	none: {name: white, color: {r: 0, g: 0, b: 0, a: 0}},
	flat: {name: white, color: {r: 0.0, g: 0.0, b: 0.0, a: 0.6}},
    flat-over: {name: white, color: { hex: "#ffffff82" }},
    flat-down: {name: white, color: { hex: "#ffd37fff" }}
},
ButtonStyle: {
	default: {down: button-down, up: button },
	toggle: {checked: button-down, down: button-down, up: button }
},
TextButtonStyle: {
	default: {over: button-over, disabled: button, font: default-font, fontColor: white, disabledFontColor: gray, down: button-down, up: button},
	right: {over: button-right-over, font: default-font, fontColor: white, disabledFontColor: gray, down: button-right-down, up: button-right},
	wave: {font: default-font, fontColor: white, disabledFontColor: gray, up: button-edge-4},
	clear: {over: flat-over, font: default-font, fontColor: white, disabledFontColor: gray, down: pane, up: flat},
	discord: {font: default-font, fontColor: white, up: discord-banner},
	info: {font: default-font, fontColor: white, up: info-banner},
	clear-partial: {down: white, up: button-select, over: flat-down, font: default-font, fontColor: white, disabledFontColor: gray },
	clear-partial-2: {down: flat-over, up: none, over: flat-over, font: default-font, fontColor: white, disabledFontColor: gray },
	empty: {font: default-font},
	toggle: {font: default-font, fontColor: white, checked: button-down, down: button-down, up: button, over: button-over, disabled: button, disabledFontColor: gray }
},
ImageButtonStyle: {
	default: {down: button-down, up: button, over: button-over, imageDisabledColor: gray, imageUpColor: white },
	right: {over: button-right-over, down: button-right-down, up: button-right},
	empty: { imageDownColor: accent, imageUpColor: white},
	emptytoggle: {imageCheckedColor: white, imageDownColor: white, imageUpColor: gray},
	static: {up: button },
	static-down: {up: button-down },
	toggle: {checked: button-down, down: button-down, up: button, imageDisabledColor: gray, imageUpColor: white  },
	select: {checked: button-select, up: none },
	clear: {down: flat-over, up: flat, over: flat-over},
    clear-full: {down: white, up: button-select, over: flat-down},
    clear-partial: {down: flat-down, up: none, over: flat-over},
	clear-toggle: {down: flat-down, checked: flat-down, up: flat, over: flat-over},
	clear-toggle-partial: {down: flat-down, checked: flat-down, up: none, over: flat-over},
},
ScrollPaneStyle: {
	default: {vScroll: scroll, vScrollKnob: scroll-knob-vertical-black},
	horizontal: {vScroll: scroll, vScrollKnob: scroll-knob-vertical-black, hScroll: scroll-horizontal, hScrollKnob: scroll-knob-horizontal-black},
},
WindowStyle: {
	default: {titleFont: default-font, titleFontColor: accent },
	dialog: {stageBackground: dialogDim, titleFont: default-font, background: window-empty, titleFontColor: accent }
},
KeybindDialogStyle: {
	default: {keyColor: accent, keyNameColor: white, controllerColor: lightgray},
},
SliderStyle: {
	default-horizontal: {background: slider, knob: slider-knob, knobOver: slider-knob-over, knobDown: slider-knob-down},
	default-vertical: {background: slider-vertical, knob: slider-knob, knobOver: slider-knob-over, knobDown: slider-knob-down}
},
LabelStyle: {
	default: {font: default-font, fontColor: white },
	small: {font: default-font, fontColor: white }
},
TextFieldStyle: {
	default: {font: default-font-chat, fontColor: white, disabledFontColor: gray, selection: selection, background: underline, cursor: cursor, messageFont: default-font, messageFontColor: gray }
	textarea: {font: default-font-chat, fontColor: white, disabledFontColor: gray, selection: selection, background: underline, cursor: cursor, messageFont: default-font, messageFontColor: gray }
},
CheckBoxStyle: {
	default: {checkboxOn: check-on, checkboxOff: check-off, checkboxOnOver: check-on-over, checkboxOver: check-over, font: default-font, fontColor: white, disabledFontColor: gray }
}
}
